\begin{thebibliography}{1}
\def\selectlanguageifdefined#1{
\expandafter\ifx\csname date#1\endcsname\relax
\else\selectlanguage{#1}\fi}
\providecommand*{\href}[2]{{\small #2}}
\providecommand*{\url}[1]{{\small #1}}
\providecommand*{\BibUrl}[1]{\url{#1}}
\providecommand{\BibAnnote}[1]{}
\providecommand*{\BibEmph}[1]{#1}
\ProvideTextCommandDefault{\cyrdash}{\hbox to.8em{--\hss--}}
\providecommand*{\BibDash}{\ifdim\lastskip>0pt\unskip\nobreak\hskip.2em\fi
\cyrdash\hskip.2em\ignorespaces}

\bibitem{damas1984type}
\selectlanguageifdefined{english}
\BibEmph{Damas~L. M.~M.} Type assignment in programming languages~: Ph.\,D.
  thesis~/ Luis Manuel~Martins~Damas~; University of Edinburgh. \BibDash
\newblock 1984.

\end{thebibliography}
